<svg xmlns="http://www.w3.org/2000/svg" width="6.438" height="11.438" viewBox="0 0 6.438 11.438">
  <path id="arrow-left.svg" d="M323.715,115.089l5,5a0.715,0.715,0,0,0,1.217-.5v-10a0.711,0.711,0,0,0-1.217-.5l-5,5a0.7,0.7,0,0,0,0,1h0Z" transform="translate(-323.5 -108.875)"/>
</svg>
